Version 8.5.0
Id 
Min label:-2.86679e+06
Max label:4.54006e+06
bits:18
lda:0
0 ngram:
0 skip:
options: --quadratic nn
Checksum: 3369458333
:0
116060:-390912
121008:9414.85
121010:4027.33
121012:2416.41
121013:6504.16
121014:8080.77
121015:-17389.1
121016:-2511.17
121017:16.764
121019:-9940.69
121020:-4632.13
121022:9780.01
121024:5338.68
121026:-7478.26
121028:1338.24
