Version 8.5.0
Id 
Min label:-4516.16
Max label:5054.78
bits:18
lda:0
0 ngram:
0 skip:
options: --quadratic nn
Checksum: 2881892676
:0
114838:-0.0491007
114839:0.028825
114925:0.0208226
114927:-0.0050938
114986:0.018909
114987:-0.0181861
115644:-0.0212223
115645:0.0216378
116060:74.0768
116176:0.00499366
116249:0.018323
116322:-0.0294034
116323:0.0546702
121005:0.133279
121006:-0.0546681
121008:-0.286221
121009:2.74473
121010:-0.0705467
121011:0.0206852
121012:0.0572077
121013:-0.0839765
121014:0.0279745
121015:0.11901
121016:-10.5177
121017:-0.0332954
121018:12.7662
121019:-0.0501698
121020:0.235526
121021:0.224674
121022:0.436239
121023:0.0356226
121024:17.1808
121025:-18.2847
121026:0.011461
125254:-0.0134749
125255:0.00733887
125914:0.0253269
125915:-0.034959
126592:0.0152078
126594:0.0163541
126737:-0.0171793
126738:-0.068937
127151:0.000266502
127188:-0.000804925
127189:0.000664218
127249:-0.00449483
127337:-0.0532927
127873:0.0175097
127994:-0.0407291
127995:0.0270855
128014:0.0522194
128112:0.00256436
128114:0.000634438
128115:0.00341301
128672:-0.00341385
128673:0.00366619
128820:0.0269457
128821:-0.0308679
129270:0.00367241
129271:-0.00281817
129948:0.0120002
129949:-0.0132193
130094:-0.00996126
130095:0.0102329
